<svg width="45" height="65" viewBox="0 0 45 65" fill="none" xmlns="http://www.w3.org/2000/svg">
<path fill-rule="evenodd" clip-rule="evenodd" d="M27.7708 65L45 54.9488V43.01L43.764 43.7303V53.3378L25.7659 63.8298L27.7708 65ZM0.00146868 23.0728L39.5508 0V2.75865L1.94953 24.6934V28.6842L0.00146868 29.8208V23.0728ZM3.01545 25.1438L42.5648 2.07103V14.6758L3.01545 37.7486V25.1438ZM9.83245 54.5349L8.87434 53.976L3.01545 50.558V48.3492L20.301 38.2653C20.5608 38.1184 20.5328 37.9614 20.5328 37.8639V36.8454C20.5327 36.8253 20.5279 36.8056 20.5189 36.7875C20.51 36.7695 20.497 36.7537 20.4809 36.7412C20.4572 36.7229 20.4278 36.7129 20.3976 36.7129H20.3637C20.3366 36.7139 20.3102 36.7221 20.2873 36.7364L2.79149 46.9422L0.274933 45.4738L8.31516 40.7829L7.28159 40.1803L6.24801 39.5772L4.24212 38.407L43.7621 15.3697V5.09667L44.998 4.37639V16.9812L19.8908 31.6268L20.92 32.2275L21.9492 32.8282L31.6037 27.1947V28.4677L42.5648 22.0764V34.3211L20.1795 47.3821L21.1106 47.9261L43.7621 34.6515V25.1477L44.998 24.4274V36.261L25.836 47.5453L27.0269 48.2402L34.107 44.1106V46.7036L16.4348 57.0141L15.2586 57.6993L15.2542 57.6969L14.3485 58.2217L8.16275 61.8303C7.69619 62.1026 7.39283 62.032 7.19435 61.9163L5.80841 61.1076C5.68197 61.0361 5.4977 60.8013 5.85742 60.5991L6.22743 60.383L13.0439 56.4062L14.4857 55.5673L15.1934 55.1548C15.7124 54.8614 15.4551 54.7102 15.3145 54.6309L14.8455 54.3577C14.6127 54.2223 14.5514 54.2338 14.2211 54.4254L11.9339 55.7584L9.83245 54.5349ZM42.6187 42.9826V52.7784L24.7191 63.2205L16.3235 58.3226L34.7809 47.555C35.4503 47.1646 35.3778 47.3475 35.3778 46.5946V44.3953L42.6187 40.1697V42.9826ZM1.94806 30.3826V34.541L0 35.6776V31.5216L1.94806 30.3826Z" fill="#75FF69"/>
</svg>
