<svg width="32" height="24" viewBox="0 0 32 24" fill="none" xmlns="http://www.w3.org/2000/svg">
<path d="M23.8242 14.5013H26.0912C26.156 14.5013 26.3071 14.4797 26.3719 14.4797C26.8037 14.3934 27.1707 14.005 27.1707 13.4655C27.1707 12.9476 26.8037 12.5592 26.3719 12.4513C26.3071 12.4297 26.1775 12.4297 26.0912 12.4297H23.8242V14.5013Z" fill="#B8B8B8"/>
<path d="M25.8264 0C23.6437 0 21.8539 1.76877 21.8539 3.97426V8.10138H27.4634C27.5944 8.10138 27.7472 8.10138 27.8563 8.12322C29.1223 8.18873 30.0609 8.84383 30.0609 9.97933C30.0609 10.8746 29.4279 11.6389 28.2492 11.7918V11.8354C29.537 11.9228 30.5192 12.6434 30.5192 13.7571C30.5192 14.9581 29.4279 15.7442 27.9873 15.7442H21.832V23.8237H27.6599C29.8426 23.8237 31.6324 22.055 31.6324 19.8495V0H25.8264Z" fill="#B8B8B8"/>
<path d="M26.9317 10.2784C26.9317 9.75687 26.5596 9.40919 26.122 9.344C26.0782 9.344 25.9688 9.32227 25.9031 9.32227H23.8242V11.2345H25.9031C25.9688 11.2345 26.1001 11.2345 26.122 11.2128C26.5596 11.1476 26.9317 10.7999 26.9317 10.2784Z" fill="#B8B8B8"/>
<path d="M3.99437 0C1.81166 0 0.0218273 1.76447 0.0218273 3.9646V13.7454C1.13501 14.29 2.29185 14.6385 3.44869 14.6385C4.82381 14.6385 5.56593 13.8108 5.56593 12.678V8.05991H8.97097V12.6562C8.97097 14.4425 7.85778 15.902 4.08168 15.902C1.78983 15.902 0 15.401 0 15.401V23.7441H5.82785C8.01057 23.7441 9.8004 21.9796 9.8004 19.7795V0H3.99437Z" fill="#B8B8B8"/>
<path d="M14.8886 0C12.7058 0 10.916 1.76715 10.916 3.97062V9.16298C11.9201 8.31213 13.6662 7.76671 16.4819 7.89761C17.988 7.96306 19.6032 8.37758 19.6032 8.37758V10.0575C18.7956 9.64294 17.8352 9.27206 16.5911 9.18479C14.452 9.03208 13.1642 10.0793 13.1642 11.9119C13.1642 13.7663 14.452 14.8135 16.5911 14.6389C17.8352 14.5517 18.7956 14.159 19.6032 13.7663V15.4462C19.6032 15.4462 18.0098 15.8607 16.4819 15.9261C13.6662 16.057 11.9201 15.5116 10.916 14.6608V23.8237H16.7439C18.9266 23.8237 20.7164 22.0566 20.7164 19.8531V0H14.8886Z" fill="#B8B8B8"/>
</svg>
